<?xml version="1.0" encoding="UTF-8" standalone="no"?>
<!-- Created with Inkscape (http://www.inkscape.org/) -->

<svg
   xmlns:dc="http://purl.org/dc/elements/1.1/"
   xmlns:cc="http://creativecommons.org/ns#"
   xmlns:rdf="http://www.w3.org/1999/02/22-rdf-syntax-ns#"
   xmlns:svg="http://www.w3.org/2000/svg"
   xmlns="http://www.w3.org/2000/svg"
   xmlns:xlink="http://www.w3.org/1999/xlink"
   xmlns:inkscape="http://www.inkscape.org/namespaces/inkscape"
   version="1.1"
   width="48"
   height="48"
   id="svg2">
  <defs
     id="defs4">
    <linearGradient
       id="linearGradient3788">
      <stop
         id="stop3790"
         style="stop-color:#ffffff;stop-opacity:0"
         offset="0" />
      <stop
         id="stop3796"
         style="stop-color:#ffffff;stop-opacity:1"
         offset="0.5" />
      <stop
         id="stop3792"
         style="stop-color:#ffffff;stop-opacity:0"
         offset="1" />
    </linearGradient>
    <linearGradient
       id="linearGradient3865">
      <stop
         id="stop3867"
         style="stop-color:#171717;stop-opacity:1"
         offset="0" />
      <stop
         id="stop3869"
         style="stop-color:#555555;stop-opacity:1"
         offset="1" />
    </linearGradient>
    <linearGradient
       id="linearGradient3911">
      <stop
         id="stop3913"
         style="stop-color:#ffffff;stop-opacity:0.50196081"
         offset="0" />
      <stop
         id="stop3915"
         style="stop-color:#ffffff;stop-opacity:0"
         offset="1" />
    </linearGradient>
    <linearGradient
       id="linearGradient4641">
      <stop
         id="stop4643"
         style="stop-color:#1a1a1a;stop-opacity:0.27500001"
         offset="0" />
      <stop
         id="stop4645"
         style="stop-color:#000000;stop-opacity:0"
         offset="1" />
    </linearGradient>
    <clipPath
       id="clipPath4229">
      <path
         d="m 0.22097099,2.8834372 a 2.1104856,2.6165628 0 1 1 -4.22097109,0 2.1104856,2.6165628 0 1 1 4.22097109,0 z"
         transform="matrix(3.6721407,0,0,2.961901,8.938563,-6.5404555)"
         id="path4231"
         style="fill:#ff1cfc;fill-opacity:0.3413655;stroke:none" />
    </clipPath>
    <linearGradient
       x1="0.28905129"
       y1="5.5844054"
       x2="0.28905129"
       y2="0.18246913"
       id="linearGradient3821"
       xlink:href="#linearGradient3865"
       gradientUnits="userSpaceOnUse" />
    <linearGradient
       x1="16"
       y1="16"
       x2="16"
       y2="0"
       id="linearGradient3823"
       xlink:href="#linearGradient3911"
       gradientUnits="userSpaceOnUse" />
    <linearGradient
       x1="1"
       y1="1043.3622"
       x2="15"
       y2="1043.3622"
       id="linearGradient3861"
       xlink:href="#linearGradient3788"
       gradientUnits="userSpaceOnUse" />
    <linearGradient
       x1="9"
       y1="1037.3622"
       x2="9"
       y2="1051.3622"
       id="linearGradient3870"
       xlink:href="#linearGradient3788"
       gradientUnits="userSpaceOnUse" />
    <linearGradient
       x1="14"
       y1="16"
       x2="14"
       y2="-3"
       id="linearGradient3952"
       xlink:href="#linearGradient4641"
       gradientUnits="userSpaceOnUse" />
  </defs>
  <metadata
     id="metadata7">
    <rdf:RDF>
      <cc:Work
         rdf:about="">
        <dc:format>image/svg+xml</dc:format>
        <dc:type
           rdf:resource="http://purl.org/dc/dcmitype/StillImage" />
        <dc:title />
      </cc:Work>
    </rdf:RDF>
  </metadata>
  <g
     transform="translate(0,-1004.3622)"
     id="layer1">
    <g
       transform="matrix(3,0,0,3,0,-2104.7244)"
       id="g3876">
      <rect
         width="16"
         height="16"
         x="0"
         y="1036.3622"
         id="rect3826"
         style="fill:none;stroke:none" />
      <path
         d="m 0.22097099,2.8834372 a 2.1104856,2.6165628 0 1 1 -4.22097109,0 2.1104856,2.6165628 0 1 1 4.22097109,0 z"
         transform="matrix(3.6721407,0,0,2.961901,14.938563,1035.8217)"
         id="path3116"
         style="fill:url(#linearGradient3821);fill-opacity:1;stroke:none" />
      <rect
         width="16"
         height="16"
         ry="0"
         x="0"
         y="1036.3622"
         id="rect3938"
         style="fill:#000000;fill-opacity:0;stroke:none" />
      <path
         d="m 15.5,8 a 7.5,7.5 0 1 1 -15,0 7.5,7.5 0 1 1 15,0 z"
         transform="translate(0,1036.3622)"
         id="path3909"
         style="fill:none;stroke:url(#linearGradient3823);stroke-width:0.5;stroke-linecap:round;stroke-linejoin:round;stroke-miterlimit:4;stroke-opacity:0.44578313;stroke-dasharray:none;stroke-dashoffset:0" />
      <g
         transform="translate(6,-6)"
         id="g3777">
        <path
           d="m 7.5,11 a 2.5,2.5 0 1 1 -5,0 2.5,2.5 0 1 1 5,0 z"
           transform="translate(0,1036.3622)"
           id="path3779"
           style="fill:#aa30e8;fill-opacity:1;stroke:none" />
        <path
           d="m 4.8262073,9.510102 a 1.5,1.5 0 0 1 1.4557195,0.711012"
           transform="translate(0,1036.3622)"
           id="path3781"
           style="fill:none;stroke:#ffffff;stroke-linecap:round;stroke-linejoin:round;stroke-opacity:1" />
      </g>
      <g
         transform="matrix(0.59595921,0,0,0.59595921,1.520204,423.66693)"
         id="g3783">
        <path
           d="m 7.5,11 a 2.5,2.5 0 1 1 -5,0 2.5,2.5 0 1 1 5,0 z"
           transform="matrix(1.0067803,0,0,1.0067803,-0.03390165,1036.3046)"
           id="path3785"
           style="fill:#16cece;fill-opacity:1;stroke:none" />
        <path
           d="m 4.8262073,9.510102 a 1.5,1.5 0 0 1 1.4557195,0.711012"
           transform="translate(0,1036.3622)"
           id="path3787"
           style="fill:none;stroke:#ffffff;stroke-linecap:round;stroke-linejoin:round;stroke-opacity:1" />
      </g>
      <g
         id="g3872"
         style="opacity:0.4">
        <path
           d="m 1,1044.8622 14,0"
           inkscape:connector-curvature="0"
           id="path3789"
           style="fill:none;stroke:url(#linearGradient3861);stroke-width:0.5;stroke-linecap:butt;stroke-linejoin:miter;stroke-miterlimit:4;stroke-opacity:1;stroke-dasharray:none" />
        <path
           d="m 7.5,1037.3622 0,14"
           inkscape:connector-curvature="0"
           id="path3791"
           style="fill:none;stroke:url(#linearGradient3870);stroke-width:0.5;stroke-linecap:butt;stroke-linejoin:miter;stroke-miterlimit:4;stroke-opacity:1;stroke-dasharray:none" />
      </g>
      <path
         d="m 19,6.5 a 9.5,9.5 0 1 1 -19,0 9.5,9.5 0 1 1 19,0 z"
         transform="translate(6,1042.3622)"
         clip-path="url(#clipPath4229)"
         id="path3235"
         style="fill:url(#linearGradient3952);fill-opacity:1;stroke:none" />
    </g>
  </g>
</svg>
