<?xml version="1.0" encoding="UTF-8" standalone="no"?>
<!-- Created with Inkscape (http://www.inkscape.org/) -->

<svg
   xmlns:dc="http://purl.org/dc/elements/1.1/"
   xmlns:cc="http://creativecommons.org/ns#"
   xmlns:rdf="http://www.w3.org/1999/02/22-rdf-syntax-ns#"
   xmlns:svg="http://www.w3.org/2000/svg"
   xmlns="http://www.w3.org/2000/svg"
   xmlns:xlink="http://www.w3.org/1999/xlink"
   xmlns:sodipodi="http://sodipodi.sourceforge.net/DTD/sodipodi-0.dtd"
   xmlns:inkscape="http://www.inkscape.org/namespaces/inkscape"
   width="90"
   height="90"
   id="svg2"
   version="1.1"
   inkscape:version="0.48.5 r10040"
   sodipodi:docname="90.svg">
  <defs
     id="defs4">
    <linearGradient
       id="linearGradient3788">
      <stop
         style="stop-color:#ffffff;stop-opacity:0;"
         offset="0"
         id="stop3790" />
      <stop
         id="stop3796"
         offset="0.5"
         style="stop-color:#ffffff;stop-opacity:1;" />
      <stop
         style="stop-color:#ffffff;stop-opacity:0;"
         offset="1"
         id="stop3792" />
    </linearGradient>
    <linearGradient
       id="linearGradient3865">
      <stop
         style="stop-color:#171717;stop-opacity:1;"
         offset="0"
         id="stop3867" />
      <stop
         style="stop-color:#555555;stop-opacity:1;"
         offset="1"
         id="stop3869" />
    </linearGradient>
    <linearGradient
       id="linearGradient3911">
      <stop
         style="stop-color:#ffffff;stop-opacity:0.50196081;"
         offset="0"
         id="stop3913" />
      <stop
         style="stop-color:#ffffff;stop-opacity:0;"
         offset="1"
         id="stop3915" />
    </linearGradient>
    <linearGradient
       id="linearGradient4641">
      <stop
         style="stop-color:#1a1a1a;stop-opacity:0.27500001;"
         offset="0"
         id="stop4643" />
      <stop
         style="stop-color:#000000;stop-opacity:0;"
         offset="1"
         id="stop4645" />
    </linearGradient>
    <clipPath
       clipPathUnits="userSpaceOnUse"
       id="clipPath4229">
      <path
         transform="matrix(3.6721407,0,0,2.961901,8.938563,-6.5404555)"
         d="m 0.22097099,2.8834372 a 2.1104856,2.6165628 0 1 1 -4.22097109,0 2.1104856,2.6165628 0 1 1 4.22097109,0 z"
         sodipodi:ry="2.6165628"
         sodipodi:rx="2.1104856"
         sodipodi:cy="2.8834372"
         sodipodi:cx="-1.8895146"
         id="path4231"
         style="fill:#ff1cfc;fill-opacity:0.3413655;stroke:none"
         sodipodi:type="arc" />
    </clipPath>
    <linearGradient
       inkscape:collect="always"
       xlink:href="#linearGradient3865"
       id="linearGradient3821"
       gradientUnits="userSpaceOnUse"
       x1="0.28905129"
       y1="5.5844054"
       x2="0.28905129"
       y2="0.18246913" />
    <linearGradient
       inkscape:collect="always"
       xlink:href="#linearGradient3911"
       id="linearGradient3823"
       gradientUnits="userSpaceOnUse"
       x1="16"
       y1="16"
       x2="16"
       y2="0" />
    <linearGradient
       inkscape:collect="always"
       xlink:href="#linearGradient3788"
       id="linearGradient3861"
       x1="1"
       y1="1043.3622"
       x2="15"
       y2="1043.3622"
       gradientUnits="userSpaceOnUse" />
    <linearGradient
       inkscape:collect="always"
       xlink:href="#linearGradient3788"
       id="linearGradient3870"
       x1="9"
       y1="1037.3622"
       x2="9"
       y2="1051.3622"
       gradientUnits="userSpaceOnUse" />
    <linearGradient
       inkscape:collect="always"
       xlink:href="#linearGradient4641"
       id="linearGradient3952"
       gradientUnits="userSpaceOnUse"
       x1="14"
       y1="16"
       x2="14"
       y2="-3" />
  </defs>
  <sodipodi:namedview
     id="base"
     pagecolor="#ffffff"
     bordercolor="#666666"
     borderopacity="1.0"
     inkscape:pageopacity="0.0"
     inkscape:pageshadow="2"
     inkscape:zoom="4"
     inkscape:cx="79.907209"
     inkscape:cy="38.691534"
     inkscape:document-units="px"
     inkscape:current-layer="layer1"
     showgrid="false"
     inkscape:window-width="1920"
     inkscape:window-height="1017"
     inkscape:window-x="0"
     inkscape:window-y="27"
     inkscape:window-maximized="1"
     inkscape:snap-bbox="true"
     inkscape:object-paths="true"
     inkscape:snap-smooth-nodes="true"
     inkscape:object-nodes="true"
     inkscape:snap-midpoints="true"
     inkscape:snap-bbox-midpoints="true"
     inkscape:snap-bbox-edge-midpoints="true"
     inkscape:bbox-paths="true"
     inkscape:bbox-nodes="true"
     showborder="false">
    <inkscape:grid
       type="xygrid"
       id="grid2985"
       empspacing="5"
       visible="true"
       enabled="true"
       snapvisiblegridlinesonly="true"
       spacingx="1px"
       spacingy="1px" />
  </sodipodi:namedview>
  <metadata
     id="metadata7">
    <rdf:RDF>
      <cc:Work
         rdf:about="">
        <dc:format>image/svg+xml</dc:format>
        <dc:type
           rdf:resource="http://purl.org/dc/dcmitype/StillImage" />
        <dc:title />
      </cc:Work>
    </rdf:RDF>
  </metadata>
  <g
     inkscape:label="Layer 1"
     inkscape:groupmode="layer"
     id="layer1"
     transform="translate(0,-962.3622)">
    <g
       id="g3876"
       transform="matrix(5.625,0,0,5.625,0,-4867.1751)">
      <rect
         y="1036.3622"
         x="0"
         height="16"
         width="16"
         id="rect3826"
         style="fill:none;stroke:none" />
      <path
         transform="matrix(3.6721407,0,0,2.961901,14.938563,1035.8217)"
         d="M 0.22097099,2.8834372 C 0.22097099,4.3285249 -0.72392558,5.5 -1.8895146,5.5 c -1.165589,0 -2.1104855,-1.1714751 -2.1104855,-2.6165628 0,-1.4450878 0.9448965,-2.61656289 2.1104855,-2.61656289 1.16558902,0 2.11048559,1.17147509 2.11048559,2.61656289 z"
         sodipodi:ry="2.6165628"
         sodipodi:rx="2.1104856"
         sodipodi:cy="2.8834372"
         sodipodi:cx="-1.8895146"
         id="path3116"
         style="fill:url(#linearGradient3821);fill-opacity:1;stroke:none"
         sodipodi:type="arc" />
      <rect
         clip-path="none"
         width="16"
         height="16"
         ry="0"
         x="0"
         y="1036.3622"
         id="rect3938"
         style="fill:#000000;fill-opacity:0;stroke:none" />
      <path
         transform="translate(0,1036.3622)"
         d="m 15.5,8 c 0,4.142136 -3.357864,7.5 -7.5,7.5 C 3.8578644,15.5 0.5,12.142136 0.5,8 0.5,3.8578644 3.8578644,0.5 8,0.5 c 4.142136,0 7.5,3.3578644 7.5,7.5 z"
         sodipodi:ry="7.5"
         sodipodi:rx="7.5"
         sodipodi:cy="8"
         sodipodi:cx="8"
         id="path3909"
         style="fill:none;stroke:url(#linearGradient3823);stroke-width:0.5;stroke-linecap:round;stroke-linejoin:round;stroke-miterlimit:4;stroke-opacity:0.44578313;stroke-dasharray:none;stroke-dashoffset:0"
         sodipodi:type="arc" />
      <g
         transform="translate(6,-6)"
         id="g3777">
        <path
           transform="translate(0,1036.3622)"
           d="M 7.5,11 C 7.5,12.380712 6.3807119,13.5 5,13.5 3.6192881,13.5 2.5,12.380712 2.5,11 2.5,9.6192881 3.6192881,8.5 5,8.5 6.3807119,8.5 7.5,9.6192881 7.5,11 z"
           sodipodi:ry="2.5"
           sodipodi:rx="2.5"
           sodipodi:cy="11"
           sodipodi:cx="5"
           id="path3779"
           style="fill:#aa30e8;fill-opacity:1;stroke:none"
           sodipodi:type="arc" />
        <path
           sodipodi:open="true"
           sodipodi:end="5.7372034"
           sodipodi:start="4.5962664"
           transform="translate(0,1036.3622)"
           d="M 4.8262073,9.510102 C 5.4087177,9.4421537 5.977403,9.7199146 6.2819268,10.221114"
           sodipodi:ry="1.5"
           sodipodi:rx="1.5"
           sodipodi:cy="11"
           sodipodi:cx="5"
           id="path3781"
           style="fill:none;stroke:#ffffff;stroke-linecap:round;stroke-linejoin:round;stroke-opacity:1"
           sodipodi:type="arc" />
      </g>
      <g
         id="g3783"
         transform="matrix(0.59595921,0,0,0.59595921,1.520204,423.66693)">
        <path
           sodipodi:type="arc"
           style="fill:#16cece;fill-opacity:1;stroke:none"
           id="path3785"
           sodipodi:cx="5"
           sodipodi:cy="11"
           sodipodi:rx="2.5"
           sodipodi:ry="2.5"
           d="M 7.5,11 C 7.5,12.380712 6.3807119,13.5 5,13.5 3.6192881,13.5 2.5,12.380712 2.5,11 2.5,9.6192881 3.6192881,8.5 5,8.5 6.3807119,8.5 7.5,9.6192881 7.5,11 z"
           transform="matrix(1.0067803,0,0,1.0067803,-0.03390165,1036.3046)" />
        <path
           sodipodi:type="arc"
           style="fill:none;stroke:#ffffff;stroke-linecap:round;stroke-linejoin:round;stroke-opacity:1"
           id="path3787"
           sodipodi:cx="5"
           sodipodi:cy="11"
           sodipodi:rx="1.5"
           sodipodi:ry="1.5"
           d="M 4.8262073,9.510102 C 5.4087177,9.4421537 5.977403,9.7199146 6.2819268,10.221114"
           transform="translate(0,1036.3622)"
           sodipodi:start="4.5962664"
           sodipodi:end="5.7372034"
           sodipodi:open="true" />
      </g>
      <g
         style="opacity:0.4"
         id="g3872">
        <path
           style="fill:none;stroke:url(#linearGradient3861);stroke-width:0.5;stroke-linecap:butt;stroke-linejoin:miter;stroke-miterlimit:4;stroke-opacity:1;stroke-dasharray:none"
           d="m 1,1044.8622 14,0"
           id="path3789"
           inkscape:connector-curvature="0"
           sodipodi:nodetypes="cc" />
        <path
           sodipodi:nodetypes="cc"
           inkscape:connector-curvature="0"
           id="path3791"
           d="m 7.5,1037.3622 0,14"
           style="fill:none;stroke:url(#linearGradient3870);stroke-width:0.5;stroke-linecap:butt;stroke-linejoin:miter;stroke-miterlimit:4;stroke-opacity:1;stroke-dasharray:none" />
      </g>
      <path
         clip-path="url(#clipPath4229)"
         transform="translate(6,1042.3622)"
         d="M 19,6.5 C 19,11.746705 14.746705,16 9.5,16 4.2532949,16 0,11.746705 0,6.5 0,1.2532949 4.2532949,-3 9.5,-3 14.746705,-3 19,1.2532949 19,6.5 z"
         sodipodi:ry="9.5"
         sodipodi:rx="9.5"
         sodipodi:cy="6.5"
         sodipodi:cx="9.5"
         id="path3235"
         style="fill:url(#linearGradient3952);fill-opacity:1;stroke:none"
         sodipodi:type="arc" />
    </g>
  </g>
</svg>
